{
	"id": "6e9d0d5b-b618-48c9-94d1-06703510c52f",
	"name": "for boody car",
	"values": [
		{
			"key": "localhost",
			"value": "http://localhost:3000",
			"type": "text",
			"description": "",
			"enabled": true
		}
	],
	"_postman_variable_scope": "environment",
	"_postman_exported_at": "2018-10-28T19:54:42.043Z",
	"_postman_exported_using": "Postman/6.4.4"
}