{
  "type": "service_account",
  "project_id": "boodycar-6c7a7",
  "private_key_id": "edb6d2b55d82cd3441845a2d4bfdeb34d544d49c",
  "private_key": "-----BEGIN PRIVATE KEY-----\nMIIEvQIBADANBgkqhkiG9w0BAQEFAASCBKcwggSjAgEAAoIBAQCcVPcHGbu4592M\nlOail9oAKSIh5BHGf/2hdD0bkWozyCnxCNJUghoviIAhfMGy+LgQ3ca7PbGwpdW+\nEd9h53OQZclwQjoUB3HXvepGTeM0fc9YKtSajpV/yhW0c6Z7r8bR1aEKM2aCflqT\nkqfXef0Lw8ZOqh97j9/N5KInmX8Hnl+sp7A98695VVl9aLdvEWHs3YKB9PoMYeGP\nnsafNFClXTpTB2HSPqp3ZoJXU/aIEWk+04aNxtn7tRIfJIM8ZtHzlGoLD5/bSoVQ\n5TNIkZWrMj6osjRSwW8rAkyuLNQJYpd8iScGPeibb2PiWViSMFJHlhu8JLIWxZSf\nnjX/BYfRAgMBAAECggEACTPvPtnC9UWhAy+YzCWITc4eFkSozzilo6WGG2NaDyZP\nYcMVLqhiBj5Q3KfNd02w+D01/7vIBBAfHwtKTSck5HE5hIRBiwBNMVgavHzFTUfC\ntvv+fAK8xkMNOAw+1rUoTR34VvNjq3bouhs+Ci9CODkUKXlWVR3JHQPCj/Y3Rilz\nBCmT/Y5xdfOmvTJsIpUP5qtK9TcpsUcfxUdgs4lFTGT7Zf4A4qaJiYrf7DJR27kF\nBX5B+sFMItuAyi1KGCYJaPwPdEcuxLGIJeKgExAicVmFc+wWVHapVxGD9Cuz/Mgk\nkTqVOJgiQRgraDgoCRavrWqkWQzZrQKoCmHjaqZZiQKBgQDN7dmeQjnq7W7F+tZR\nz+CVjDhQRUmHGGc+gigw+a/3SWgEuOA0eOGDaxkyTKfMQOotjaYNASPV6Go21wVe\nCk6Vrre42vcyCfobVhM0AGq6nJ4enK2u5EBs8q3VGDOiEUPrts+O4VCm6BjQjCSM\nr6z9+fw0K8qjLRLrOfmHV7F+zwKBgQDCV+oP6texaOyAm9e3cCGjH0WrPGVzMHDy\nHyuaoQG0r9AQYNyJAlf23ltIZ/PTWWi+PvYJV1W4BYOuLl7UJXp4lbfm6dlSWsh2\nOlZyGQaBxsjCH9J465W5gx9QluzXsYI/Y5M1/hXPWsqqIyQwy6OG/fQH90GXWWsx\nfWdAEcc3XwKBgADOuvi85789GR8bobWGbCoJ97qQ2v31oYoENqYihIciuY6zLuXl\nx3SdeebRmCLb6k8tbAZHB93x4GDArRu2TKKXoc7OxQNkOJ/c0Yx1p/V9Yb1a/e9e\no8YJmZbpVmJ/UNXezKeRyKAu7tH6irYmhjYkwdFujoffSGC1xH28YUzPAoGAYkLx\nJXsn85uJeL1TJHydhUyafSncYZFsif8YnOYrZqA+IwnWd6+nqjpjDQkCTyo1u3s6\nCx8NSC4Bll/7smgAtFd+1FIIf4tHL//vFWFx2MwZVY2hbWIwIcwaWTT2K1ik8kf2\ndqYxgNX3Am8iLUnJNMfSSvTJRS0A9dTiD5LtlyECgYEAx6K0rlWml0MRBZT+P9Tf\nXCMhMbWNxc5jovbm1pgpyDRk12ZRk4wtkTRno7m9vr9Hr0wS8KT8DyyBY9hsxeFj\nYZ7Aa1ZRWD/DDbmirEnuDONsHq8wz6EsrMRwGwF38vfMTCmAociyiVGTnr7b572j\na1SZphWGBCkNl07kNCemYZs=\n-----END PRIVATE KEY-----\n",
  "client_email": "firebase-adminsdk-thsgs@boodycar-6c7a7.iam.gserviceaccount.com",
  "client_id": "117708109127474495334",
  "auth_uri": "https://accounts.google.com/o/oauth2/auth",
  "token_uri": "https://oauth2.googleapis.com/token",
  "auth_provider_x509_cert_url": "https://www.googleapis.com/oauth2/v1/certs",
  "client_x509_cert_url": "https://www.googleapis.com/robot/v1/metadata/x509/firebase-adminsdk-thsgs%40boodycar-6c7a7.iam.gserviceaccount.com"
}

